{
    "prepare_queue": {
        "installed": [],
        "uninstalled": []
    },
    "config_munge": {
        "files": {}
    },
    "installed_plugins": {
        "com.hutchind.cordova.plugins.streamingmedia": {
            "PACKAGE_NAME": "com.DamedashStudios.com"
        },
        "cordova-plugin-inappbrowser": {
            "PACKAGE_NAME": "com.DamedashStudios.com"
        },
        "cordova-sqlite-storage": {
            "PACKAGE_NAME": "com.DamedashStudios.com"
        },
        "cordova-plugin-whitelist": {
            "PACKAGE_NAME": "com.DamedashStudios.com"
        },
        "cordova-plugin-device": {
            "PACKAGE_NAME": "com.DamedashStudios.com"
        },
        "cordova-plugin-screen-orientation": {
            "PACKAGE_NAME": "com.DamedashStudios.com"
        }
    },
    "dependent_plugins": {}
}